generated/rfs/RegFilesTestMain1452082518/RegFiles.vcd
$version Generated by VerilatedVcd $end
$date Thu Mar 31 17:52:05 2022 $end
$timescale 1ps $end

 $scope module TOP $end
  $var wire  1 c clock $end
  $var wire 64 k io_r_data1 [63:0] $end
  $var wire 64 m io_r_data2 [63:0] $end
  $var wire  5 h io_rd [4:0] $end
  $var wire  1 e io_reg_write $end
  $var wire  5 f io_rs1 [4:0] $end
  $var wire  5 g io_rs2 [4:0] $end
  $var wire 64 i io_w_data [63:0] $end
  $var wire  1 d reset $end
  $scope module RegFiles $end
   $var wire  1 c clock $end
   $var wire 64 k io_r_data1 [63:0] $end
   $var wire 64 m io_r_data2 [63:0] $end
   $var wire  5 h io_rd [4:0] $end
   $var wire  1 e io_reg_write $end
   $var wire  5 f io_rs1 [4:0] $end
   $var wire  5 g io_rs2 [4:0] $end
   $var wire 64 i io_w_data [63:0] $end
   $var wire 64 # registers_0 [63:0] $end
   $var wire 64 % registers_1 [63:0] $end
   $var wire 64 7 registers_10 [63:0] $end
   $var wire 64 9 registers_11 [63:0] $end
   $var wire 64 ; registers_12 [63:0] $end
   $var wire 64 = registers_13 [63:0] $end
   $var wire 64 ? registers_14 [63:0] $end
   $var wire 64 A registers_15 [63:0] $end
   $var wire 64 C registers_16 [63:0] $end
   $var wire 64 E registers_17 [63:0] $end
   $var wire 64 G registers_18 [63:0] $end
   $var wire 64 I registers_19 [63:0] $end
   $var wire 64 ' registers_2 [63:0] $end
   $var wire 64 K registers_20 [63:0] $end
   $var wire 64 M registers_21 [63:0] $end
   $var wire 64 O registers_22 [63:0] $end
   $var wire 64 Q registers_23 [63:0] $end
   $var wire 64 S registers_24 [63:0] $end
   $var wire 64 U registers_25 [63:0] $end
   $var wire 64 W registers_26 [63:0] $end
   $var wire 64 Y registers_27 [63:0] $end
   $var wire 64 [ registers_28 [63:0] $end
   $var wire 64 ] registers_29 [63:0] $end
   $var wire 64 ) registers_3 [63:0] $end
   $var wire 64 _ registers_30 [63:0] $end
   $var wire 64 a registers_31 [63:0] $end
   $var wire 64 + registers_4 [63:0] $end
   $var wire 64 - registers_5 [63:0] $end
   $var wire 64 / registers_6 [63:0] $end
   $var wire 64 1 registers_7 [63:0] $end
   $var wire 64 3 registers_8 [63:0] $end
   $var wire 64 5 registers_9 [63:0] $end
   $var wire  1 d reset $end
  $upscope $end
 $upscope $end
$enddefinitions $end


#0
b0000000000000000000000000000000000000000000000000000000000000000 #
b0000000000000000000000000000000000000000000000000000000000000000 %
b0000000000000000000000000000000000000000000000000000000000000000 '
b0000000000000000000000000000000000000000000000000000000000000000 )
b0000000000000000000000000000000000000000000000000000000000000000 +
b0000000000000000000000000000000000000000000000000000000000000000 -
b0000000000000000000000000000000000000000000000000000000000000000 /
b0000000000000000000000000000000000000000000000000000000000000000 1
b0000000000000000000000000000000000000000000000000000000000000000 3
b0000000000000000000000000000000000000000000000000000000000000000 5
b0000000000000000000000000000000000000000000000000000000000000000 7
b0000000000000000000000000000000000000000000000000000000000000000 9
b0000000000000000000000000000000000000000000000000000000000000000 ;
b0000000000000000000000000000000000000000000000000000000000000000 =
b0000000000000000000000000000000000000000000000000000000000000000 ?
b0000000000000000000000000000000000000000000000000000000000000000 A
b0000000000000000000000000000000000000000000000000000000000000000 C
b0000000000000000000000000000000000000000000000000000000000000000 E
b0000000000000000000000000000000000000000000000000000000000000000 G
b0000000000000000000000000000000000000000000000000000000000000000 I
b0000000000000000000000000000000000000000000000000000000000000000 K
b0000000000000000000000000000000000000000000000000000000000000000 M
b0000000000000000000000000000000000000000000000000000000000000000 O
b0000000000000000000000000000000000000000000000000000000000000000 Q
b0000000000000000000000000000000000000000000000000000000000000000 S
b0000000000000000000000000000000000000000000000000000000000000000 U
b0000000000000000000000000000000000000000000000000000000000000000 W
b0000000000000000000000000000000000000000000000000000000000000000 Y
b0000000000000000000000000000000000000000000000000000000000000000 [
b0000000000000000000000000000000000000000000000000000000000000000 ]
b0000000000000000000000000000000000000000000000000000000000000000 _
b0000000000000000000000000000000000000000000000000000000000000000 a
0c
1d
0e
b00000 f
b00000 g
b00000 h
b0000000000000000000000000000000000000000000000000000000000000000 i
b0000000000000000000000000000000000000000000000000000000000000000 k
b0000000000000000000000000000000000000000000000000000000000000000 m
#1
1c
#2
0c
#3
1c
#4
0c
#5
1c
#6
0c
#7
1c
#8
0c
#9
1c
#10
0c
0d
1e
#11
1c
#12
0c
b00001 h
b0000000000000000000000000000000000000000000000000000000000000001 i
#13
b0000000000000000000000000000000000000000000000000000000000000001 %
1c
#14
0c
b00010 h
b0000000000000000000000000000000000000000000000000000000000000010 i
#15
b0000000000000000000000000000000000000000000000000000000000000010 '
1c
#16
0c
b00011 h
b0000000000000000000000000000000000000000000000000000000000000011 i
#17
b0000000000000000000000000000000000000000000000000000000000000011 )
1c
#18
0c
b00100 h
b0000000000000000000000000000000000000000000000000000000000000100 i
#19
b0000000000000000000000000000000000000000000000000000000000000100 +
1c
#20
0c
b00101 h
b0000000000000000000000000000000000000000000000000000000000000101 i
#21
b0000000000000000000000000000000000000000000000000000000000000101 -
1c
#22
0c
b00110 h
b0000000000000000000000000000000000000000000000000000000000000110 i
#23
b0000000000000000000000000000000000000000000000000000000000000110 /
1c
#24
0c
b00111 h
b0000000000000000000000000000000000000000000000000000000000000111 i
#25
b0000000000000000000000000000000000000000000000000000000000000111 1
1c
#26
0c
b01000 h
b0000000000000000000000000000000000000000000000000000000000001000 i
#27
b0000000000000000000000000000000000000000000000000000000000001000 3
1c
#28
0c
b01001 h
b0000000000000000000000000000000000000000000000000000000000001001 i
#29
b0000000000000000000000000000000000000000000000000000000000001001 5
1c
#30
0c
b01010 h
b0000000000000000000000000000000000000000000000000000000000001010 i
#31
b0000000000000000000000000000000000000000000000000000000000001010 7
1c
#32
0c
b01011 h
b0000000000000000000000000000000000000000000000000000000000001011 i
#33
b0000000000000000000000000000000000000000000000000000000000001011 9
1c
#34
0c
b01100 h
b0000000000000000000000000000000000000000000000000000000000001100 i
#35
b0000000000000000000000000000000000000000000000000000000000001100 ;
1c
#36
0c
b01101 h
b0000000000000000000000000000000000000000000000000000000000001101 i
#37
b0000000000000000000000000000000000000000000000000000000000001101 =
1c
#38
0c
b01110 h
b0000000000000000000000000000000000000000000000000000000000001110 i
#39
b0000000000000000000000000000000000000000000000000000000000001110 ?
1c
#40
0c
b01111 h
b0000000000000000000000000000000000000000000000000000000000001111 i
#41
b0000000000000000000000000000000000000000000000000000000000001111 A
1c
#42
0c
b10000 h
b0000000000000000000000000000000000000000000000000000000000010000 i
#43
b0000000000000000000000000000000000000000000000000000000000010000 C
1c
#44
0c
b10001 h
b0000000000000000000000000000000000000000000000000000000000010001 i
#45
b0000000000000000000000000000000000000000000000000000000000010001 E
1c
#46
0c
b10010 h
b0000000000000000000000000000000000000000000000000000000000010010 i
#47
b0000000000000000000000000000000000000000000000000000000000010010 G
1c
#48
0c
b10011 h
b0000000000000000000000000000000000000000000000000000000000010011 i
#49
b0000000000000000000000000000000000000000000000000000000000010011 I
1c
#50
0c
b10100 h
b0000000000000000000000000000000000000000000000000000000000010100 i
#51
b0000000000000000000000000000000000000000000000000000000000010100 K
1c
#52
0c
b10101 h
b0000000000000000000000000000000000000000000000000000000000010101 i
#53
b0000000000000000000000000000000000000000000000000000000000010101 M
1c
#54
0c
b10110 h
b0000000000000000000000000000000000000000000000000000000000010110 i
#55
b0000000000000000000000000000000000000000000000000000000000010110 O
1c
#56
0c
b10111 h
b0000000000000000000000000000000000000000000000000000000000010111 i
#57
b0000000000000000000000000000000000000000000000000000000000010111 Q
1c
#58
0c
b11000 h
b0000000000000000000000000000000000000000000000000000000000011000 i
#59
b0000000000000000000000000000000000000000000000000000000000011000 S
1c
#60
0c
b11001 h
b0000000000000000000000000000000000000000000000000000000000011001 i
#61
b0000000000000000000000000000000000000000000000000000000000011001 U
1c
#62
0c
b11010 h
b0000000000000000000000000000000000000000000000000000000000011010 i
#63
b0000000000000000000000000000000000000000000000000000000000011010 W
1c
#64
0c
b11011 h
b0000000000000000000000000000000000000000000000000000000000011011 i
#65
b0000000000000000000000000000000000000000000000000000000000011011 Y
1c
#66
0c
b11100 h
b0000000000000000000000000000000000000000000000000000000000011100 i
#67
b0000000000000000000000000000000000000000000000000000000000011100 [
1c
#68
0c
b11101 h
b0000000000000000000000000000000000000000000000000000000000011101 i
#69
b0000000000000000000000000000000000000000000000000000000000011101 ]
1c
#70
0c
b11110 h
b0000000000000000000000000000000000000000000000000000000000011110 i
#71
b0000000000000000000000000000000000000000000000000000000000011110 _
1c
#72
0c
b11111 h
b0000000000000000000000000000000000000000000000000000000000011111 i
#73
b0000000000000000000000000000000000000000000000000000000000011111 a
1c
#74
0c
b00010 g
b0000000000000000000000000000000000000000000000000000000000000010 m
#75
1c
#76
0c
b00101 f
b11111 g
b0000000000000000000000000000000000000000000000000000000000000101 k
b0000000000000000000000000000000000000000000000000000000000011111 m
#77
1c
#78
0c
b00000 f
b00000 h
b0000000000000000000000000000000000000000000000000000000000100000 i
b0000000000000000000000000000000000000000000000000000000000000000 k
#79
1c
#80
0c
0e
b01100 f
b01100 h
b0000000000000000000000000000000000000000000000000000000001100100 i
b0000000000000000000000000000000000000000000000000000000000001100 k
#81
1c
#82
0c
1e
#83
b0000000000000000000000000000000000000000000000000000000001100100 ;
1c
b0000000000000000000000000000000000000000000000000000000001100100 k
