generated/top/TopTestMain1890823940/Top.vcd
$version Generated by VerilatedVcd $end
$date Sun Apr  3 17:44:17 2022 $end
$timescale 1ps $end

 $scope module TOP $end
  $var wire  1 K! clock $end
  $var wire 64 M! io_reg_out [63:0] $end
  $var wire  1 L! reset $end
  $scope module Top $end
   $var wire  4 > alu_ctrl_io_alu_ctrl [3:0] $end
   $var wire  2 ; alu_ctrl_io_alu_op [1:0] $end
   $var wire  3 < alu_ctrl_io_fun3 [2:0] $end
   $var wire  1 = alu_ctrl_io_fun7 $end
   $var wire  5 7 alu_io_alu_ctrl [4:0] $end
   $var wire 64 1 alu_io_oper_a [63:0] $end
   $var wire 64 5 alu_io_oper_b [63:0] $end
   $var wire 64 8 alu_io_result [63:0] $end
   $var wire  1 : alu_io_zero $end
   $var wire  1 K! clock $end
   $var wire  2 ; ctrl_io_alu_op [1:0] $end
   $var wire  1 ? ctrl_io_alu_src $end
   $var wire  1 C ctrl_io_branch $end
   $var wire 32 * ctrl_io_inst [31:0] $end
   $var wire  1 A ctrl_io_mem_read $end
   $var wire  1 @ ctrl_io_mem_to_reg $end
   $var wire  1 B ctrl_io_mem_write $end
   $var wire  1 + ctrl_io_reg_write $end
   $var wire  1 K! dmem_clock $end
   $var wire 10 N dmem_io_address [9:0] $end
   $var wire  1 A dmem_io_mem_read $end
   $var wire  1 B dmem_io_mem_write $end
   $var wire 64 O dmem_io_read_data [63:0] $end
   $var wire 64 3 dmem_io_write_data [63:0] $end
   $var wire  1 K! imem_clock $end
   $var wire 10 ) imem_io_address [9:0] $end
   $var wire 32 * imem_io_inst [31:0] $end
   $var wire 64 Q imm [63:0] $end
   $var wire 64 H imm_gen_io_b_imm [63:0] $end
   $var wire 64 D imm_gen_io_i_imm [63:0] $end
   $var wire 32 * imm_gen_io_instruction [31:0] $end
   $var wire 64 L imm_gen_io_j_imm [63:0] $end
   $var wire 64 F imm_gen_io_s_imm [63:0] $end
   $var wire 64 J imm_gen_io_u_imm [63:0] $end
   $var wire 64 M! io_reg_out [63:0] $end
   $var wire  1 K! pc_clock $end
   $var wire 64 # pc_io_in [63:0] $end
   $var wire 64 % pc_io_out [63:0] $end
   $var wire 64 ' pc_io_pc4 [63:0] $end
   $var wire  1 L! pc_reset $end
   $var wire  1 K! reg_files_clock $end
   $var wire 64 1 reg_files_io_r_data1 [63:0] $end
   $var wire 64 3 reg_files_io_r_data2 [63:0] $end
   $var wire  5 . reg_files_io_rd [4:0] $end
   $var wire  1 + reg_files_io_reg_write $end
   $var wire  5 , reg_files_io_rs1 [4:0] $end
   $var wire  5 - reg_files_io_rs2 [4:0] $end
   $var wire 64 / reg_files_io_w_data [63:0] $end
   $var wire  1 L! reg_files_reset $end
   $var wire  1 L! reset $end
   $scope module alu $end
    $var wire  5 7 io_alu_ctrl [4:0] $end
    $var wire 64 1 io_oper_a [63:0] $end
    $var wire 64 5 io_oper_b [63:0] $end
    $var wire 64 8 io_result [63:0] $end
    $var wire  1 : io_zero $end
    $var wire 64 5! res [63:0] $end
   $upscope $end
   $scope module alu_ctrl $end
    $var wire  4 > io_alu_ctrl [3:0] $end
    $var wire  2 ; io_alu_op [1:0] $end
    $var wire  3 < io_fun3 [2:0] $end
    $var wire  1 = io_fun7 $end
   $upscope $end
   $scope module ctrl $end
    $var wire  1 8! alu_op0 $end
    $var wire  1 9! alu_op1 $end
    $var wire  2 ; io_alu_op [1:0] $end
    $var wire  1 ? io_alu_src $end
    $var wire  1 C io_branch $end
    $var wire 32 * io_inst [31:0] $end
    $var wire  1 A io_mem_read $end
    $var wire  1 @ io_mem_to_reg $end
    $var wire  1 B io_mem_write $end
    $var wire  1 + io_reg_write $end
    $var wire  7 7! opcode [6:0] $end
   $upscope $end
   $scope module dmem $end
    $var wire  1 K! clock $end
    $var wire 10 N io_address [9:0] $end
    $var wire  1 A io_mem_read $end
    $var wire  1 B io_mem_write $end
    $var wire 64 O io_read_data [63:0] $end
    $var wire 64 3 io_write_data [63:0] $end
    $var wire 10 N mem_MPORT_addr [9:0] $end
    $var wire 64 3 mem_MPORT_data [63:0] $end
    $var wire  1 J! mem_MPORT_en $end
    $var wire  1 O! mem_MPORT_mask $end
    $var wire 10 N mem_io_read_data_MPORT_addr [9:0] $end
    $var wire 64 O mem_io_read_data_MPORT_data [63:0] $end
    $var wire  1 I! mem_io_read_data_MPORT_en $end
   $upscope $end
   $scope module imem $end
    $var wire  1 K! clock $end
    $var wire 10 ) io_address [9:0] $end
    $var wire 32 * io_inst [31:0] $end
    $var wire 10 ) mem_io_inst_MPORT_addr [9:0] $end
    $var wire 32 * mem_io_inst_MPORT_data [31:0] $end
    $var wire  1 O! mem_io_inst_MPORT_en $end
    $scope module BindsTo_0_InstMem_Inst $end
     $var wire  1 K! clock $end
     $var wire 10 ) io_address [9:0] $end
     $var wire 32 * io_inst [31:0] $end
    $upscope $end
   $upscope $end
   $scope module imm_gen $end
    $var wire 12 :! i_imm_12 [11:0] $end
    $var wire 64 H io_b_imm [63:0] $end
    $var wire 64 D io_i_imm [63:0] $end
    $var wire 32 * io_instruction [31:0] $end
    $var wire 64 L io_j_imm [63:0] $end
    $var wire 64 F io_s_imm [63:0] $end
    $var wire 64 J io_u_imm [63:0] $end
    $var wire 12 <! s_imm_12 [11:0] $end
    $var wire  5 . s_lower_half [4:0] $end
    $var wire  7 ;! s_upper_half [6:0] $end
    $var wire  1 ?! sb_11thbit $end
    $var wire  1 @! sb_12thbit $end
    $var wire 13 A! sb_imm_13 [12:0] $end
    $var wire  4 =! sb_lower_half [3:0] $end
    $var wire  6 >! sb_upper_half [5:0] $end
    $var wire 20 B! u_imm_20 [19:0] $end
    $var wire 64 C! u_imm_64 [63:0] $end
    $var wire  1 F! uj_11thbit $end
    $var wire 21 H! uj_imm_21 [20:0] $end
    $var wire 10 E! uj_lower_half [9:0] $end
    $var wire  8 G! uj_upper_half [7:0] $end
   $upscope $end
   $scope module pc $end
    $var wire  1 K! clock $end
    $var wire 64 # io_in [63:0] $end
    $var wire 64 % io_out [63:0] $end
    $var wire 64 ' io_pc4 [63:0] $end
    $var wire 64 % reg_ [63:0] $end
    $var wire  1 L! reset $end
   $upscope $end
   $scope module reg_files $end
    $var wire  1 K! clock $end
    $var wire 64 1 io_r_data1 [63:0] $end
    $var wire 64 3 io_r_data2 [63:0] $end
    $var wire  5 . io_rd [4:0] $end
    $var wire  1 + io_reg_write $end
    $var wire  5 , io_rs1 [4:0] $end
    $var wire  5 - io_rs2 [4:0] $end
    $var wire 64 / io_w_data [63:0] $end
    $var wire 64 S registers_0 [63:0] $end
    $var wire 64 U registers_1 [63:0] $end
    $var wire 64 g registers_10 [63:0] $end
    $var wire 64 i registers_11 [63:0] $end
    $var wire 64 k registers_12 [63:0] $end
    $var wire 64 m registers_13 [63:0] $end
    $var wire 64 o registers_14 [63:0] $end
    $var wire 64 q registers_15 [63:0] $end
    $var wire 64 s registers_16 [63:0] $end
    $var wire 64 u registers_17 [63:0] $end
    $var wire 64 w registers_18 [63:0] $end
    $var wire 64 y registers_19 [63:0] $end
    $var wire 64 W registers_2 [63:0] $end
    $var wire 64 { registers_20 [63:0] $end
    $var wire 64 } registers_21 [63:0] $end
    $var wire 64 !! registers_22 [63:0] $end
    $var wire 64 #! registers_23 [63:0] $end
    $var wire 64 %! registers_24 [63:0] $end
    $var wire 64 '! registers_25 [63:0] $end
    $var wire 64 )! registers_26 [63:0] $end
    $var wire 64 +! registers_27 [63:0] $end
    $var wire 64 -! registers_28 [63:0] $end
    $var wire 64 /! registers_29 [63:0] $end
    $var wire 64 Y registers_3 [63:0] $end
    $var wire 64 1! registers_30 [63:0] $end
    $var wire 64 3! registers_31 [63:0] $end
    $var wire 64 [ registers_4 [63:0] $end
    $var wire 64 ] registers_5 [63:0] $end
    $var wire 64 _ registers_6 [63:0] $end
    $var wire 64 a registers_7 [63:0] $end
    $var wire 64 c registers_8 [63:0] $end
    $var wire 64 e registers_9 [63:0] $end
    $var wire  1 L! reset $end
   $upscope $end
  $upscope $end
 $upscope $end
$enddefinitions $end


#0
b0000000000000000000000000000000000000000000000000000000000000100 #
b0000000000000000000000000000000000000000000000000000000000000000 %
b0000000000000000000000000000000000000000000000000000000000000100 '
b0000000000 )
b00000000110000000110111010010011 *
1+
b00000 ,
b01100 -
b11101 .
b0000000000000000000000000000000000000000000000000000000000001100 /
b0000000000000000000000000000000000000000000000000000000000000000 1
b0000000000000000000000000000000000000000000000000000000000000000 3
b0000000000000000000000000000000000000000000000000000000000001100 5
b00001 7
b0000000000000000000000000000000000000000000000000000000000001100 8
0:
b10 ;
b110 <
0=
b0001 >
1?
0@
0A
0B
0C
b0000000000000000000000000000000000000000000000000000000000001100 D
b0000000000000000000000000000000000000000000000000000000000011101 F
b0000000000000000000000000000000000000000000000000000100000011100 H
b0000000000000000000000000000000000000000110000000110000000000000 J
b0000000000000000000000000000000000000000000000000110000000001100 L
b0000000011 N
b0000000000000000000000000000000000000000000000000000000000000000 O
b0000000000000000000000000000000000000000000000000000000000001100 Q
b0000000000000000000000000000000000000000000000000000000000000000 S
b0000000000000000000000000000000000000000000000000000000000000000 U
b0000000000000000000000000000000000000000000000000000000000000000 W
b0000000000000000000000000000000000000000000000000000000000000000 Y
b0000000000000000000000000000000000000000000000000000000000000000 [
b0000000000000000000000000000000000000000000000000000000000000000 ]
b0000000000000000000000000000000000000000000000000000000000000000 _
b0000000000000000000000000000000000000000000000000000000000000000 a
b0000000000000000000000000000000000000000000000000000000000000000 c
b0000000000000000000000000000000000000000000000000000000000000000 e
b0000000000000000000000000000000000000000000000000000000000000000 g
b0000000000000000000000000000000000000000000000000000000000000000 i
b0000000000000000000000000000000000000000000000000000000000000000 k
b0000000000000000000000000000000000000000000000000000000000000000 m
b0000000000000000000000000000000000000000000000000000000000000000 o
b0000000000000000000000000000000000000000000000000000000000000000 q
b0000000000000000000000000000000000000000000000000000000000000000 s
b0000000000000000000000000000000000000000000000000000000000000000 u
b0000000000000000000000000000000000000000000000000000000000000000 w
b0000000000000000000000000000000000000000000000000000000000000000 y
b0000000000000000000000000000000000000000000000000000000000000000 {
b0000000000000000000000000000000000000000000000000000000000000000 }
b0000000000000000000000000000000000000000000000000000000000000000 !!
b0000000000000000000000000000000000000000000000000000000000000000 #!
b0000000000000000000000000000000000000000000000000000000000000000 %!
b0000000000000000000000000000000000000000000000000000000000000000 '!
b0000000000000000000000000000000000000000000000000000000000000000 )!
b0000000000000000000000000000000000000000000000000000000000000000 +!
b0000000000000000000000000000000000000000000000000000000000000000 -!
b0000000000000000000000000000000000000000000000000000000000000000 /!
b0000000000000000000000000000000000000000000000000000000000000000 1!
b0000000000000000000000000000000000000000000000000000000000000000 3!
b0000000000000000000000000000000000000000000000000000000000001100 5!
b0010011 7!
08!
19!
b000000001100 :!
b0000000 ;!
b000000011101 <!
b1110 =!
b000000 >!
1?!
0@!
b0100000011100 A!
b00000000110000000110 B!
b0000000000000000000000000000000000000000000000000000110000000110 C!
b0000000110 E!
0F!
b00000110 G!
b000000110000000001100 H!
1I!
0J!
0K!
1L!
b0000000000000000000000000000000000000000000000000000000000000000 M!
1O!
#1
1K!
#2
0K!
#3
1K!
#4
0K!
#5
1K!
#6
0K!
#7
1K!
#8
0K!
#9
1K!
#10
0K!
0L!
#11
b0000000000000000000000000000000000000000000000000000000000001000 #
b0000000000000000000000000000000000000000000000000000000000000100 %
b0000000000000000000000000000000000000000000000000000000000001000 '
b0000000001 )
b00010010001100000110010000010011 *
b00011 -
b01000 .
b0000000000000000000000000000000000000000000000000000000100100011 /
b0000000000000000000000000000000000000000000000000000000100100011 5
b0000000000000000000000000000000000000000000000000000000100100011 8
b0000000000000000000000000000000000000000000000000000000100100011 D
b0000000000000000000000000000000000000000000000000000000100101000 F
b0000000000000000000000000000000000000000000000000000000100101000 H
b0000000000000000000000000000000000010010001100000110000000000000 J
b0000000000000000000000000000000000000000000000000110100100100010 L
b0001001000 N
b0000000000000000000000000000000000000000000000000000000100100011 Q
b0000000000000000000000000000000000000000000000000000000000001100 /!
b0000000000000000000000000000000000000000000000000000000100100011 5!
b000100100011 :!
b0001001 ;!
b000100101000 <!
b0100 =!
b001001 >!
0?!
b0000100101000 A!
b00010010001100000110 B!
b0000000000000000000000000000000000000000000000010010001100000110 C!
b0010010001 E!
1F!
b000000110100100100010 H!
1K!
#12
0K!
#13
b0000000000000000000000000000000000000000000000000000000000001100 #
b0000000000000000000000000000000000000000000000000000000000001000 %
b0000000000000000000000000000000000000000000000000000000000001100 '
b0000000010 )
b01000101011000000110010010010011 *
b10110 -
b01001 .
b0000000000000000000000000000000000000000000000000000010001010110 /
b0000000000000000000000000000000000000000000000000000010001010110 5
b0000000000000000000000000000000000000000000000000000010001010110 8
1=
b0000000000000000000000000000000000000000000000000000010001010110 D
b0000000000000000000000000000000000000000000000000000010001001001 F
b0000000000000000000000000000000000000000000000000000110001001000 H
b0000000000000000000000000000000001000101011000000110000000000000 J
b0000000000000000000000000000000000000000000000000110010001010110 L
b0100010101 N
b0000000000000000000000000000000000000000000000000000010001010110 Q
b0000000000000000000000000000000000000000000000000000000100100011 c
b0000000000000000000000000000000000000000000000000000010001010110 5!
b010001010110 :!
b0100010 ;!
b010001001001 <!
b100010 >!
1?!
b0110001001000 A!
b01000101011000000110 B!
b0000000000000000000000000000000000000000000001000101011000000110 C!
b1000101011 E!
0F!
b000000110010001010110 H!
1K!
#14
0K!
#15
b0000000000000000000000000000000000000000000000000000000000010000 #
b0000000000000000000000000000000000000000000000000000000000001100 %
b0000000000000000000000000000000000000000000000000000000000010000 '
b0000000011 )
b00000000100101000000001110110011 *
b01000 ,
b01001 -
b00111 .
b0000000000000000000000000000000000000000000000000000010101111001 /
b0000000000000000000000000000000000000000000000000000000100100011 1
b0000000000000000000000000000000000000000000000000000010001010110 3
b00010 7
b0000000000000000000000000000000000000000000000000000010101111001 8
b000 <
0=
b0010 >
0?
b0000000000000000000000000000000000000000000000000000000000001001 D
b0000000000000000000000000000000000000000000000000000000000000111 F
b0000000000000000000000000000000000000000000000000000100000000110 H
b0000000000000000000000000000000000000000100101000000000000000000 J
b0000000000000000000000000000000000000000000001000000100000001000 L
b0101011110 N
b0000000000000000000000000000000000000000000000000000000000000000 Q
b0000000000000000000000000000000000000000000000000000010001010110 e
b0000000000000000000000000000000000000000000000000000010101111001 5!
b0110011 7!
b000000001001 :!
b0000000 ;!
b000000000111 <!
b0011 =!
b000000 >!
b0100000000110 A!
b00000000100101000000 B!
b0000000000000000000000000000000000000000000000000000100101000000 C!
b0000000100 E!
1F!
b01000000 G!
b001000000100000001000 H!
1K!
b0000000000000000000000000000000000000000000000000000000100100011 M!
#16
0K!
#17
b0000000000000000000000000000000000000000000000000000000000010100 #
b0000000000000000000000000000000000000000000000000000000000010000 %
b0000000000000000000000000000000000000000000000000000000000010100 '
b0000000100 )
b01000000100100111000001100110011 *
b00111 ,
b00110 .
b0000000000000000000000000000000000000000000000000000000100100011 /
b0000000000000000000000000000000000000000000000000000010101111001 1
b00110 7
b0000000000000000000000000000000000000000000000000000000100100011 8
1=
b0110 >
b0000000000000000000000000000000000000000000000000000010000001001 D
b0000000000000000000000000000000000000000000000000000010000000110 F
b0000000000000000000000000000000000000000000000000000010000000110 H
b0000000000000000000000000000000001000000100100111000000000000000 J
b0000000000000000000000000000000000000000000000111000110000001000 L
b0001001000 N
b0000000000000000000000000000000000000000000000000000010101111001 a
b0000000000000000000000000000000000000000000000000000000100100011 5!
b010000001001 :!
b0100000 ;!
b010000000110 <!
b100000 >!
0?!
b0010000000110 A!
b01000000100100111000 B!
b0000000000000000000000000000000000000000000001000000100100111000 C!
b1000000100 E!
b00111000 G!
b000111000110000001000 H!
1K!
b0000000000000000000000000000000000000000000000000000010101111001 M!
#18
0K!
#19
b0000000000000000000000000000000000000000000000000000000000011000 #
b0000000000000000000000000000000000000000000000000000000000010100 %
b0000000000000000000000000000000000000000000000000000000000011000 '
b0000000101 )
b00000000100101000110010100110011 *
b01000 ,
b01010 .
b0000000000000000000000000000000000000000000000000000010101110111 /
b0000000000000000000000000000000000000000000000000000000100100011 1
b00001 7
b0000000000000000000000000000000000000000000000000000010101110111 8
b110 <
0=
b0001 >
b0000000000000000000000000000000000000000000000000000000000001001 D
b0000000000000000000000000000000000000000000000000000000000001010 F
b0000000000000000000000000000000000000000000000000000000000001010 H
b0000000000000000000000000000000000000000100101000110000000000000 J
b0000000000000000000000000000000000000000000001000110100000001000 L
b0101011101 N
b0000000000000000000000000000000000000000000000000000000100100011 _
b0000000000000000000000000000000000000000000000000000010101110111 5!
b000000001001 :!
b0000000 ;!
b000000001010 <!
b0101 =!
b000000 >!
b0000000001010 A!
b00000000100101000110 B!
b0000000000000000000000000000000000000000000000000000100101000110 C!
b0000000100 E!
b01000110 G!
b001000110100000001000 H!
1K!
b0000000000000000000000000000000000000000000000000000000100100011 M!
#20
0K!
#21
b0000000000000000000000000000000000000000000000000000000000011100 #
b0000000000000000000000000000000000000000000000000000000000011000 %
b0000000000000000000000000000000000000000000000000000000000011100 '
b0000000110 )
b00000000101001001111010110110011 *
b01001 ,
b01010 -
b01011 .
b0000000000000000000000000000000000000000000000000000010001010110 /
b0000000000000000000000000000000000000000000000000000010001010110 1
b0000000000000000000000000000000000000000000000000000010101110111 3
b0000000000000000000000000000000000000000000000000000010101110111 5
b00000 7
b0000000000000000000000000000000000000000000000000000010001010110 8
b111 <
b0000 >
b0000000000000000000000000000000000000000000000000000000000001010 D
b0000000000000000000000000000000000000000000000000000000000001011 F
b0000000000000000000000000000000000000000000000000000100000001010 H
b0000000000000000000000000000000000000000101001001111000000000000 J
b0000000000000000000000000000000000000000000001001111000000001010 L
b0100010101 N
b0000000000000000000000000000000000000000000000000000010101110111 g
b0000000000000000000000000000000000000000000000000000010001010110 5!
b000000001010 :!
b000000001011 <!
1?!
b0100000001010 A!
b00000000101001001111 B!
b0000000000000000000000000000000000000000000000000000101001001111 C!
b0000000101 E!
0F!
b01001111 G!
b001001111000000001010 H!
1K!
b0000000000000000000000000000000000000000000000000000010001010110 M!
#22
0K!
#23
b0000000000000000000000000000000000000000000000000000000000100000 #
b0000000000000000000000000000000000000000000000000000000000011100 %
b0000000000000000000000000000000000000000000000000000000000100000 '
b0000000111 )
b00000000100000000010000000100011 *
0+
b00000 ,
b01000 -
b00000 .
b0000000000000000000000000000000000000000000000000000000000000000 /
b0000000000000000000000000000000000000000000000000000000000000000 1
b0000000000000000000000000000000000000000000000000000000100100011 3
b0000000000000000000000000000000000000000000000000000000000000000 5
b00010 7
b0000000000000000000000000000000000000000000000000000000000000000 8
1:
b00 ;
b010 <
b0010 >
1?
1B
b0000000000000000000000000000000000000000000000000000000000001000 D
b0000000000000000000000000000000000000000000000000000000000000000 F
b0000000000000000000000000000000000000000000000000000000000000000 H
b0000000000000000000000000000000000000000100000000010000000000000 J
b0000000000000000000000000000000000000000000000000010000000001000 L
b0000000000 N
b0000000000000000000000000000000000000000000000000000010001010110 i
b0000000000000000000000000000000000000000000000000000000000000000 5!
b0100011 7!
09!
b000000001000 :!
b000000000000 <!
b0000 =!
0?!
b0000000000000 A!
b00000000100000000010 B!
b0000000000000000000000000000000000000000000000000000100000000010 C!
b0000000100 E!
b00000010 G!
b000000010000000001000 H!
0I!
1J!
1K!
b0000000000000000000000000000000000000000000000000000000000000000 M!
#24
0K!
#25
b0000000000000000000000000000000000000000000000000000000000100100 #
b0000000000000000000000000000000000000000000000000000000000100000 %
b0000000000000000000000000000000000000000000000000000000000100100 '
b0000001000 )
b00000000100100000010001000100011 *
b01001 -
b00100 .
b0000000000000000000000000000000000000000000000000000000000000100 /
b0000000000000000000000000000000000000000000000000000010001010110 3
b0000000000000000000000000000000000000000000000000000000000000100 5
b0000000000000000000000000000000000000000000000000000000000000100 8
0:
b0000000000000000000000000000000000000000000000000000000000001001 D
b0000000000000000000000000000000000000000000000000000000000000100 F
b0000000000000000000000000000000000000000000000000000000000000100 H
b0000000000000000000000000000000000000000100100000010000000000000 J
b0000000000000000000000000000000000000000000000000010100000001000 L
b0000000001 N
b0000000000000000000000000000000000000000000000000000000000000100 Q
b0000000000000000000000000000000000000000000000000000000000000100 5!
b000000001001 :!
b000000000100 <!
b0010 =!
b0000000000100 A!
b00000000100100000010 B!
b0000000000000000000000000000000000000000000000000000100100000010 C!
1F!
b000000010100000001000 H!
1K!
#26
0K!
#27
b0000000000000000000000000000000000000000000000000000000000101000 #
b0000000000000000000000000000000000000000000000000000000000100100 %
b0000000000000000000000000000000000000000000000000000000000101000 '
b0000001001 )
b00000000011111101010001000100011 *
b11101 ,
b00111 -
b0000000000000000000000000000000000000000000000000000000000010000 /
b0000000000000000000000000000000000000000000000000000000000001100 1
b0000000000000000000000000000000000000000000000000000010101111001 3
b0000000000000000000000000000000000000000000000000000000000010000 8
b0000000000000000000000000000000000000000000000000000000000000111 D
b0000000000000000000000000000000000000000011111101010000000000000 J
b0000000000000000000000000000000000000000000011101010100000000110 L
b0000000100 N
b0000000000000000000000000000000000000000000000000000000000010000 5!
b000000000111 :!
b00000000011111101010 B!
b0000000000000000000000000000000000000000000000000000011111101010 C!
b0000000011 E!
b11101010 G!
b011101010100000000110 H!
1K!
b0000000000000000000000000000000000000000000000000000000000001100 M!
#28
0K!
#29
b0000000000000000000000000000000000000000000000000000000000101100 #
b0000000000000000000000000000000000000000000000000000000000101000 %
b0000000000000000000000000000000000000000000000000000000000101100 '
b0000001010 )
b00000000000000000010001010000011 *
1+
b00000 ,
b00000 -
b00101 .
b0000000000000000000000000000000000000000000000000000000100100011 /
b0000000000000000000000000000000000000000000000000000000000000000 1
b0000000000000000000000000000000000000000000000000000000000000000 3
b0000000000000000000000000000000000000000000000000000000000000000 5
b0000000000000000000000000000000000000000000000000000000000000000 8
1:
1@
1A
0B
b0000000000000000000000000000000000000000000000000000000000000000 D
b0000000000000000000000000000000000000000000000000000000000000101 F
b0000000000000000000000000000000000000000000000000000100000000100 H
b0000000000000000000000000000000000000000000000000010000000000000 J
b0000000000000000000000000000000000000000000000000010000000000000 L
b0000000000 N
b0000000000000000000000000000000000000000000000000000000100100011 O
b0000000000000000000000000000000000000000000000000000000000000000 Q
b0000000000000000000000000000000000000000000000000000000000000000 5!
b0000011 7!
b000000000000 :!
b000000000101 <!
1?!
b0100000000100 A!
b00000000000000000010 B!
b0000000000000000000000000000000000000000000000000000000000000010 C!
b0000000000 E!
0F!
b00000010 G!
b000000010000000000000 H!
1I!
0J!
1K!
b0000000000000000000000000000000000000000000000000000000000000000 M!
#30
0K!
#31
b0000000000000000000000000000000000000000000000000000000000110100 #
b0000000000000000000000000000000000000000000000000000000000101100 %
b0000000000000000000000000000000000000000000000000000000000110000 '
b0000001011 )
b00000000010101000000010001100011 *
0+
b01000 ,
b00101 -
b01000 .
b0000000000000000000000000000000000000000000000000000000000000000 /
b0000000000000000000000000000000000000000000000000000000100100011 1
b0000000000000000000000000000000000000000000000000000000100100011 3
b0000000000000000000000000000000000000000000000000000000100100011 5
b00110 7
b01 ;
b000 <
b0110 >
0?
0@
0A
1C
b0000000000000000000000000000000000000000000000000000000000000101 D
b0000000000000000000000000000000000000000000000000000000000001000 F
b0000000000000000000000000000000000000000000000000000000000001000 H
b0000000000000000000000000000000000000000010101000000000000000000 J
b0000000000000000000000000000000000000000000001000000100000000100 L
b0000000000000000000000000000000000000000000000000000000000001000 Q
b0000000000000000000000000000000000000000000000000000000100100011 ]
b1100011 7!
18!
b000000000101 :!
b000000001000 <!
b0100 =!
0?!
b0000000001000 A!
b00000000010101000000 B!
b0000000000000000000000000000000000000000000000000000010101000000 C!
b0000000010 E!
1F!
b01000000 G!
b001000000100000000100 H!
1K!
b0000000000000000000000000000000000000000000000000000000100100011 M!
#32
0K!
#33
b0000000000000000000000000000000000000000000000000000000000111000 #
b0000000000000000000000000000000000000000000000000000000000110100 %
b0000000000000000000000000000000000000000000000000000000000111000 '
b0000001101 )
b00000000010000000010001010000011 *
1+
b00000 ,
b00100 -
b00101 .
b0000000000000000000000000000000000000000000000000000010001010110 /
b0000000000000000000000000000000000000000000000000000000000000000 1
b0000000000000000000000000000000000000000000000000000000000000000 3
b0000000000000000000000000000000000000000000000000000000000000100 5
b00010 7
b0000000000000000000000000000000000000000000000000000000000000100 8
0:
b00 ;
b010 <
b0010 >
1?
1@
1A
0C
b0000000000000000000000000000000000000000000000000000000000000100 D
b0000000000000000000000000000000000000000000000000000000000000101 F
b0000000000000000000000000000000000000000000000000000100000000100 H
b0000000000000000000000000000000000000000010000000010000000000000 J
b0000000000000000000000000000000000000000000000000010000000000100 L
b0000000001 N
b0000000000000000000000000000000000000000000000000000010001010110 O
b0000000000000000000000000000000000000000000000000000000000000100 Q
b0000000000000000000000000000000000000000000000000000000000000100 5!
b0000011 7!
08!
b000000000100 :!
b000000000101 <!
b0010 =!
1?!
b0100000000100 A!
b00000000010000000010 B!
b0000000000000000000000000000000000000000000000000000010000000010 C!
0F!
b00000010 G!
b000000010000000000100 H!
1K!
b0000000000000000000000000000000000000000000000000000000000000000 M!
#34
0K!
#35
b0000000000000000000000000000000000000000000000000000000000110000 #
b0000000000000000000000000000000000000000000000000000000000111000 %
b0000000000000000000000000000000000000000000000000000000000111100 '
b0000001110 )
b11111110010101001000110011100011 *
0+
b01001 ,
b00101 -
b11001 .
b0000000000000000000000000000000000000000000000000000000000000000 /
b0000000000000000000000000000000000000000000000000000010001010110 1
b0000000000000000000000000000000000000000000000000000010001010110 3
b0000000000000000000000000000000000000000000000000000010001010110 5
b00110 7
b0000000000000000000000000000000000000000000000000000000000000000 8
1:
b01 ;
b000 <
1=
b0110 >
0?
0@
0A
1C
b1111111111111111111111111111111111111111111111111111111111100101 D
b1111111111111111111111111111111111111111111111111111111111111001 F
b1111111111111111111111111111111111111111111111111111111111111000 H
b1111111111111111111111111111111111111110010101001000000000000000 J
b1111111111111111111111111111111111111111111101001000111111100100 L
b0000000000 N
b0000000000000000000000000000000000000000000000000000000100100011 O
b1111111111111111111111111111111111111111111111111111111111111000 Q
b0000000000000000000000000000000000000000000000000000010001010110 ]
b0000000000000000000000000000000000000000000000000000000000000000 5!
b1100011 7!
18!
b111111100101 :!
b1111111 ;!
b111111111001 <!
b1100 =!
b111111 >!
1@!
b1111111111000 A!
b11111110010101001000 B!
b1111111111111111111111111111111111111111111111111110010101001000 C!
b1111110010 E!
1F!
b01001000 G!
b101001000111111100100 H!
1K!
b0000000000000000000000000000000000000000000000000000010001010110 M!
#36
0K!
#37
b0000000000000000000000000000000000000000000000000000000000110100 #
b0000000000000000000000000000000000000000000000000000000000110000 %
b0000000000000000000000000000000000000000000000000000000000110100 '
b0000001100 )
b00000000010011101010010010000011 *
1+
b11101 ,
b00100 -
b01001 .
b0000000000000000000000000000000000000000000000000000010101111001 /
b0000000000000000000000000000000000000000000000000000000000001100 1
b0000000000000000000000000000000000000000000000000000000000000000 3
b0000000000000000000000000000000000000000000000000000000000000100 5
b00010 7
b0000000000000000000000000000000000000000000000000000000000010000 8
0:
b00 ;
b010 <
0=
b0010 >
1?
1@
1A
0C
b0000000000000000000000000000000000000000000000000000000000000100 D
b0000000000000000000000000000000000000000000000000000000000001001 F
b0000000000000000000000000000000000000000000000000000100000001000 H
b0000000000000000000000000000000000000000010011101010000000000000 J
b0000000000000000000000000000000000000000000011101010000000000100 L
b0000000100 N
b0000000000000000000000000000000000000000000000000000010101111001 O
b0000000000000000000000000000000000000000000000000000000000000100 Q
b0000000000000000000000000000000000000000000000000000000000010000 5!
b0000011 7!
08!
b000000000100 :!
b0000000 ;!
b000000001001 <!
b0100 =!
b000000 >!
0@!
b0100000001000 A!
b00000000010011101010 B!
b0000000000000000000000000000000000000000000000000000010011101010 C!
b0000000010 E!
0F!
b11101010 G!
b011101010000000000100 H!
1K!
b0000000000000000000000000000000000000000000000000000000000001100 M!
#38
0K!
#39
b0000000000000000000000000000000000000000000000000000000000111000 #
b0000000000000000000000000000000000000000000000000000000000110100 %
b0000000000000000000000000000000000000000000000000000000000111000 '
b0000001101 )
b00000000010000000010001010000011 *
b00000 ,
b00101 .
b0000000000000000000000000000000000000000000000000000010001010110 /
b0000000000000000000000000000000000000000000000000000000000000000 1
b0000000000000000000000000000000000000000000000000000000000000100 8
b0000000000000000000000000000000000000000000000000000000000000101 F
b0000000000000000000000000000000000000000000000000000100000000100 H
b0000000000000000000000000000000000000000010000000010000000000000 J
b0000000000000000000000000000000000000000000000000010000000000100 L
b0000000001 N
b0000000000000000000000000000000000000000000000000000010001010110 O
b0000000000000000000000000000000000000000000000000000010101111001 e
b0000000000000000000000000000000000000000000000000000000000000100 5!
b000000000101 <!
b0010 =!
b0100000000100 A!
b00000000010000000010 B!
b0000000000000000000000000000000000000000000000000000010000000010 C!
b00000010 G!
b000000010000000000100 H!
1K!
b0000000000000000000000000000000000000000000000000000000000000000 M!
#40
0K!
