generated/top/TopTestMain944316975/Top.vcd
$version Generated by VerilatedVcd $end
$date Sat Apr  2 16:55:18 2022 $end
$timescale 1ps $end

 $scope module TOP $end
  $var wire  1 @! clock $end
  $var wire 64 B! io_reg_out [63:0] $end
  $var wire  1 A! reset $end
  $scope module Top $end
   $var wire  4 > alu_ctrl_io_alu_ctrl [3:0] $end
   $var wire  2 ; alu_ctrl_io_alu_op [1:0] $end
   $var wire  3 < alu_ctrl_io_fun3 [2:0] $end
   $var wire  1 = alu_ctrl_io_fun7 $end
   $var wire  5 7 alu_io_alu_ctrl [4:0] $end
   $var wire 64 1 alu_io_oper_a [63:0] $end
   $var wire 64 5 alu_io_oper_b [63:0] $end
   $var wire 64 8 alu_io_result [63:0] $end
   $var wire  1 : alu_io_zero $end
   $var wire  1 @! clock $end
   $var wire  2 ; ctrl_io_alu_op [1:0] $end
   $var wire  1 ? ctrl_io_alu_src $end
   $var wire  1 C ctrl_io_branch $end
   $var wire 32 * ctrl_io_inst [31:0] $end
   $var wire  1 A ctrl_io_mem_read $end
   $var wire  1 @ ctrl_io_mem_to_reg $end
   $var wire  1 B ctrl_io_mem_write $end
   $var wire  1 + ctrl_io_reg_write $end
   $var wire  1 @! dmem_clock $end
   $var wire 10 J dmem_io_address [9:0] $end
   $var wire  1 A dmem_io_mem_read $end
   $var wire  1 B dmem_io_mem_write $end
   $var wire 64 K dmem_io_read_data [63:0] $end
   $var wire 64 3 dmem_io_write_data [63:0] $end
   $var wire  1 @! imem_clock $end
   $var wire 10 ) imem_io_address [9:0] $end
   $var wire 32 * imem_io_inst [31:0] $end
   $var wire 64 M imm [63:0] $end
   $var wire 64 H imm_gen_io_b_imm [63:0] $end
   $var wire 64 D imm_gen_io_i_imm [63:0] $end
   $var wire 32 * imm_gen_io_instruction [31:0] $end
   $var wire 64 F imm_gen_io_s_imm [63:0] $end
   $var wire 64 B! io_reg_out [63:0] $end
   $var wire  1 @! pc_clock $end
   $var wire 64 # pc_io_in [63:0] $end
   $var wire 64 % pc_io_out [63:0] $end
   $var wire 64 ' pc_io_pc4 [63:0] $end
   $var wire  1 A! pc_reset $end
   $var wire  1 @! reg_files_clock $end
   $var wire 64 1 reg_files_io_r_data1 [63:0] $end
   $var wire 64 3 reg_files_io_r_data2 [63:0] $end
   $var wire  5 . reg_files_io_rd [4:0] $end
   $var wire  1 + reg_files_io_reg_write $end
   $var wire  5 , reg_files_io_rs1 [4:0] $end
   $var wire  5 - reg_files_io_rs2 [4:0] $end
   $var wire 64 / reg_files_io_w_data [63:0] $end
   $var wire  1 A! reg_files_reset $end
   $var wire  1 A! reset $end
   $scope module alu $end
    $var wire  5 7 io_alu_ctrl [4:0] $end
    $var wire 64 1 io_oper_a [63:0] $end
    $var wire 64 5 io_oper_b [63:0] $end
    $var wire 64 8 io_result [63:0] $end
    $var wire  1 : io_zero $end
    $var wire 64 1! res [63:0] $end
   $upscope $end
   $scope module alu_ctrl $end
    $var wire  4 > io_alu_ctrl [3:0] $end
    $var wire  2 ; io_alu_op [1:0] $end
    $var wire  3 < io_fun3 [2:0] $end
    $var wire  1 = io_fun7 $end
   $upscope $end
   $scope module ctrl $end
    $var wire  1 4! alu_op0 $end
    $var wire  1 5! alu_op1 $end
    $var wire  2 ; io_alu_op [1:0] $end
    $var wire  1 ? io_alu_src $end
    $var wire  1 C io_branch $end
    $var wire 32 * io_inst [31:0] $end
    $var wire  1 A io_mem_read $end
    $var wire  1 @ io_mem_to_reg $end
    $var wire  1 B io_mem_write $end
    $var wire  1 + io_reg_write $end
    $var wire  7 3! opcode [6:0] $end
   $upscope $end
   $scope module dmem $end
    $var wire  1 @! clock $end
    $var wire 10 J io_address [9:0] $end
    $var wire  1 A io_mem_read $end
    $var wire  1 B io_mem_write $end
    $var wire 64 K io_read_data [63:0] $end
    $var wire 64 3 io_write_data [63:0] $end
    $var wire 10 J mem_MPORT_addr [9:0] $end
    $var wire 64 3 mem_MPORT_data [63:0] $end
    $var wire  1 ?! mem_MPORT_en $end
    $var wire  1 D! mem_MPORT_mask $end
    $var wire 10 J mem_io_read_data_MPORT_addr [9:0] $end
    $var wire 64 K mem_io_read_data_MPORT_data [63:0] $end
    $var wire  1 >! mem_io_read_data_MPORT_en $end
   $upscope $end
   $scope module imem $end
    $var wire  1 @! clock $end
    $var wire 10 ) io_address [9:0] $end
    $var wire 32 * io_inst [31:0] $end
    $var wire 10 ) mem_io_inst_MPORT_addr [9:0] $end
    $var wire 32 * mem_io_inst_MPORT_data [31:0] $end
    $var wire  1 D! mem_io_inst_MPORT_en $end
    $scope module BindsTo_0_InstMem_Inst $end
     $var wire  1 @! clock $end
     $var wire 10 ) io_address [9:0] $end
     $var wire 32 * io_inst [31:0] $end
    $upscope $end
   $upscope $end
   $scope module imm_gen $end
    $var wire 12 6! i_imm_12 [11:0] $end
    $var wire 64 H io_b_imm [63:0] $end
    $var wire 64 D io_i_imm [63:0] $end
    $var wire 32 * io_instruction [31:0] $end
    $var wire 64 F io_s_imm [63:0] $end
    $var wire 12 8! s_imm_12 [11:0] $end
    $var wire  5 . s_lower_half [4:0] $end
    $var wire  7 7! s_upper_half [6:0] $end
    $var wire  1 ;! sb_11thbit $end
    $var wire  1 <! sb_12thbit $end
    $var wire 13 =! sb_imm_13 [12:0] $end
    $var wire  4 9! sb_lower_half [3:0] $end
    $var wire  6 :! sb_upper_half [5:0] $end
   $upscope $end
   $scope module pc $end
    $var wire  1 @! clock $end
    $var wire 64 # io_in [63:0] $end
    $var wire 64 % io_out [63:0] $end
    $var wire 64 ' io_pc4 [63:0] $end
    $var wire 64 % reg_ [63:0] $end
    $var wire  1 A! reset $end
   $upscope $end
   $scope module reg_files $end
    $var wire  1 @! clock $end
    $var wire 64 1 io_r_data1 [63:0] $end
    $var wire 64 3 io_r_data2 [63:0] $end
    $var wire  5 . io_rd [4:0] $end
    $var wire  1 + io_reg_write $end
    $var wire  5 , io_rs1 [4:0] $end
    $var wire  5 - io_rs2 [4:0] $end
    $var wire 64 / io_w_data [63:0] $end
    $var wire 64 O registers_0 [63:0] $end
    $var wire 64 Q registers_1 [63:0] $end
    $var wire 64 c registers_10 [63:0] $end
    $var wire 64 e registers_11 [63:0] $end
    $var wire 64 g registers_12 [63:0] $end
    $var wire 64 i registers_13 [63:0] $end
    $var wire 64 k registers_14 [63:0] $end
    $var wire 64 m registers_15 [63:0] $end
    $var wire 64 o registers_16 [63:0] $end
    $var wire 64 q registers_17 [63:0] $end
    $var wire 64 s registers_18 [63:0] $end
    $var wire 64 u registers_19 [63:0] $end
    $var wire 64 S registers_2 [63:0] $end
    $var wire 64 w registers_20 [63:0] $end
    $var wire 64 y registers_21 [63:0] $end
    $var wire 64 { registers_22 [63:0] $end
    $var wire 64 } registers_23 [63:0] $end
    $var wire 64 !! registers_24 [63:0] $end
    $var wire 64 #! registers_25 [63:0] $end
    $var wire 64 %! registers_26 [63:0] $end
    $var wire 64 '! registers_27 [63:0] $end
    $var wire 64 )! registers_28 [63:0] $end
    $var wire 64 +! registers_29 [63:0] $end
    $var wire 64 U registers_3 [63:0] $end
    $var wire 64 -! registers_30 [63:0] $end
    $var wire 64 /! registers_31 [63:0] $end
    $var wire 64 W registers_4 [63:0] $end
    $var wire 64 Y registers_5 [63:0] $end
    $var wire 64 [ registers_6 [63:0] $end
    $var wire 64 ] registers_7 [63:0] $end
    $var wire 64 _ registers_8 [63:0] $end
    $var wire 64 a registers_9 [63:0] $end
    $var wire  1 A! reset $end
   $upscope $end
  $upscope $end
 $upscope $end
$enddefinitions $end


#0
b0000000000000000000000000000000000000000000000000000000000000100 #
b0000000000000000000000000000000000000000000000000000000000000000 %
b0000000000000000000000000000000000000000000000000000000000000100 '
b0000000000 )
b00000000110000000110111010010011 *
1+
b00000 ,
b01100 -
b11101 .
b0000000000000000000000000000000000000000000000000000000000000000 /
b0000000000000000000000000000000000000000000000000000000000000000 1
b0000000000000000000000000000000000000000000000000000000000000000 3
b0000000000000000000000000000000000000000000000000000000000000000 5
b00001 7
b0000000000000000000000000000000000000000000000000000000000000000 8
1:
b10 ;
b110 <
0=
b0001 >
1?
0@
0A
0B
0C
b0000000000000000000000000000000000000000000000000000000000001100 D
b0000000000000000000000000000000000000000000000000000000000011101 F
b0000000000000000000000000000000000000000000000000000100000011100 H
b0000000000 J
b0000000000000000000000000000000000000000000000000000000000000000 K
b0000000000000000000000000000000000000000000000000000000000000000 M
b0000000000000000000000000000000000000000000000000000000000000000 O
b0000000000000000000000000000000000000000000000000000000000000000 Q
b0000000000000000000000000000000000000000000000000000000000000000 S
b0000000000000000000000000000000000000000000000000000000000000000 U
b0000000000000000000000000000000000000000000000000000000000000000 W
b0000000000000000000000000000000000000000000000000000000000000000 Y
b0000000000000000000000000000000000000000000000000000000000000000 [
b0000000000000000000000000000000000000000000000000000000000000000 ]
b0000000000000000000000000000000000000000000000000000000000000000 _
b0000000000000000000000000000000000000000000000000000000000000000 a
b0000000000000000000000000000000000000000000000000000000000000000 c
b0000000000000000000000000000000000000000000000000000000000000000 e
b0000000000000000000000000000000000000000000000000000000000000000 g
b0000000000000000000000000000000000000000000000000000000000000000 i
b0000000000000000000000000000000000000000000000000000000000000000 k
b0000000000000000000000000000000000000000000000000000000000000000 m
b0000000000000000000000000000000000000000000000000000000000000000 o
b0000000000000000000000000000000000000000000000000000000000000000 q
b0000000000000000000000000000000000000000000000000000000000000000 s
b0000000000000000000000000000000000000000000000000000000000000000 u
b0000000000000000000000000000000000000000000000000000000000000000 w
b0000000000000000000000000000000000000000000000000000000000000000 y
b0000000000000000000000000000000000000000000000000000000000000000 {
b0000000000000000000000000000000000000000000000000000000000000000 }
b0000000000000000000000000000000000000000000000000000000000000000 !!
b0000000000000000000000000000000000000000000000000000000000000000 #!
b0000000000000000000000000000000000000000000000000000000000000000 %!
b0000000000000000000000000000000000000000000000000000000000000000 '!
b0000000000000000000000000000000000000000000000000000000000000000 )!
b0000000000000000000000000000000000000000000000000000000000000000 +!
b0000000000000000000000000000000000000000000000000000000000000000 -!
b0000000000000000000000000000000000000000000000000000000000000000 /!
b0000000000000000000000000000000000000000000000000000000000000000 1!
b0010011 3!
04!
15!
b000000001100 6!
b0000000 7!
b000000011101 8!
b1110 9!
b000000 :!
1;!
0<!
b0100000011100 =!
1>!
0?!
0@!
1A!
b0000000000000000000000000000000000000000000000000000000000000000 B!
1D!
#1
1@!
#2
0@!
#3
1@!
#4
0@!
#5
1@!
#6
0@!
#7
1@!
#8
0@!
#9
1@!
#10
0@!
0A!
#11
b0000000000000000000000000000000000000000000000000000000000001000 #
b0000000000000000000000000000000000000000000000000000000000000100 %
b0000000000000000000000000000000000000000000000000000000000001000 '
b0000000001 )
b00010010001100000110010000010011 *
b00011 -
b01000 .
b0000000000000000000000000000000000000000000000000000000100100011 D
b0000000000000000000000000000000000000000000000000000000100101000 F
b0000000000000000000000000000000000000000000000000000000100101000 H
b000100100011 6!
b0001001 7!
b000100101000 8!
b0100 9!
b001001 :!
0;!
b0000100101000 =!
1@!
#12
0@!
#13
b0000000000000000000000000000000000000000000000000000000000001100 #
b0000000000000000000000000000000000000000000000000000000000001000 %
b0000000000000000000000000000000000000000000000000000000000001100 '
b0000000010 )
b01000101011000000110010010010011 *
b10110 -
b01001 .
1=
b0000000000000000000000000000000000000000000000000000010001010110 D
b0000000000000000000000000000000000000000000000000000010001001001 F
b0000000000000000000000000000000000000000000000000000110001001000 H
b010001010110 6!
b0100010 7!
b010001001001 8!
b100010 :!
1;!
b0110001001000 =!
1@!
#14
0@!
#15
b0000000000000000000000000000000000000000000000000000000000010000 #
b0000000000000000000000000000000000000000000000000000000000001100 %
b0000000000000000000000000000000000000000000000000000000000010000 '
b0000000011 )
b00000000100101000000001110110011 *
b01000 ,
b01001 -
b00111 .
b00010 7
b000 <
0=
b0010 >
0?
b0000000000000000000000000000000000000000000000000000000000001001 D
b0000000000000000000000000000000000000000000000000000000000000111 F
b0000000000000000000000000000000000000000000000000000100000000110 H
b0110011 3!
b000000001001 6!
b0000000 7!
b000000000111 8!
b0011 9!
b000000 :!
b0100000000110 =!
1@!
#16
0@!
#17
b0000000000000000000000000000000000000000000000000000000000010100 #
b0000000000000000000000000000000000000000000000000000000000010000 %
b0000000000000000000000000000000000000000000000000000000000010100 '
b0000000100 )
b01000000100100111000001100110011 *
b00111 ,
b00110 .
b00110 7
1=
b0110 >
b0000000000000000000000000000000000000000000000000000010000001001 D
b0000000000000000000000000000000000000000000000000000010000000110 F
b0000000000000000000000000000000000000000000000000000010000000110 H
b010000001001 6!
b0100000 7!
b010000000110 8!
b100000 :!
0;!
b0010000000110 =!
1@!
#18
0@!
#19
b0000000000000000000000000000000000000000000000000000000000011000 #
b0000000000000000000000000000000000000000000000000000000000010100 %
b0000000000000000000000000000000000000000000000000000000000011000 '
b0000000101 )
b00000000100101000110010100110011 *
b01000 ,
b01010 .
b00001 7
b110 <
0=
b0001 >
b0000000000000000000000000000000000000000000000000000000000001001 D
b0000000000000000000000000000000000000000000000000000000000001010 F
b0000000000000000000000000000000000000000000000000000000000001010 H
b000000001001 6!
b0000000 7!
b000000001010 8!
b0101 9!
b000000 :!
b0000000001010 =!
1@!
#20
0@!
#21
b0000000000000000000000000000000000000000000000000000000000011100 #
b0000000000000000000000000000000000000000000000000000000000011000 %
b0000000000000000000000000000000000000000000000000000000000011100 '
b0000000110 )
b00000000101001001111010110110011 *
b01001 ,
b01010 -
b01011 .
b00000 7
b111 <
b0000 >
b0000000000000000000000000000000000000000000000000000000000001010 D
b0000000000000000000000000000000000000000000000000000000000001011 F
b0000000000000000000000000000000000000000000000000000100000001010 H
b000000001010 6!
b000000001011 8!
1;!
b0100000001010 =!
1@!
#22
0@!
#23
b0000000000000000000000000000000000000000000000000000000000100000 #
b0000000000000000000000000000000000000000000000000000000000011100 %
b0000000000000000000000000000000000000000000000000000000000100000 '
b0000000111 )
b00000000100000000010000000100011 *
0+
b00000 ,
b01000 -
b00000 .
b00010 7
b00 ;
b010 <
b0010 >
1?
1B
b0000000000000000000000000000000000000000000000000000000000001000 D
b0000000000000000000000000000000000000000000000000000000000000000 F
b0000000000000000000000000000000000000000000000000000000000000000 H
b0100011 3!
05!
b000000001000 6!
b000000000000 8!
b0000 9!
0;!
b0000000000000 =!
0>!
1?!
1@!
#24
0@!
#25
b0000000000000000000000000000000000000000000000000000000000100100 #
b0000000000000000000000000000000000000000000000000000000000100000 %
b0000000000000000000000000000000000000000000000000000000000100100 '
b0000001000 )
b00000000100100000010001000100011 *
b01001 -
b00100 .
b0000000000000000000000000000000000000000000000000000000000000100 /
b0000000000000000000000000000000000000000000000000000000000000100 5
b0000000000000000000000000000000000000000000000000000000000000100 8
0:
b0000000000000000000000000000000000000000000000000000000000001001 D
b0000000000000000000000000000000000000000000000000000000000000100 F
b0000000000000000000000000000000000000000000000000000000000000100 H
b0000000001 J
b0000000000000000000000000000000000000000000000000000000000000100 M
b0000000000000000000000000000000000000000000000000000000000000100 1!
b000000001001 6!
b000000000100 8!
b0010 9!
b0000000000100 =!
1@!
#26
0@!
#27
b0000000000000000000000000000000000000000000000000000000000101000 #
b0000000000000000000000000000000000000000000000000000000000100100 %
b0000000000000000000000000000000000000000000000000000000000101000 '
b0000001001 )
b00000000011111101010001000100011 *
b11101 ,
b00111 -
b0000000000000000000000000000000000000000000000000000000000000111 D
b000000000111 6!
1@!
#28
0@!
#29
b0000000000000000000000000000000000000000000000000000000000101100 #
b0000000000000000000000000000000000000000000000000000000000101000 %
b0000000000000000000000000000000000000000000000000000000000101100 '
b0000001010 )
b00000000000000000010001010000011 *
1+
b00000 ,
b00000 -
b00101 .
b0000000000000000000000000000000000000000000000000000000000000000 /
b0000000000000000000000000000000000000000000000000000000000000000 5
b0000000000000000000000000000000000000000000000000000000000000000 8
1:
1@
1A
0B
b0000000000000000000000000000000000000000000000000000000000000000 D
b0000000000000000000000000000000000000000000000000000000000000101 F
b0000000000000000000000000000000000000000000000000000100000000100 H
b0000000000 J
b0000000000000000000000000000000000000000000000000000000000000000 M
b0000000000000000000000000000000000000000000000000000000000000000 1!
b0000011 3!
b000000000000 6!
b000000000101 8!
1;!
b0100000000100 =!
1>!
0?!
1@!
#30
0@!
#31
b0000000000000000000000000000000000000000000000000000000000110100 #
b0000000000000000000000000000000000000000000000000000000000101100 %
b0000000000000000000000000000000000000000000000000000000000110000 '
b0000001011 )
b00000000010101000000010001100011 *
0+
b01000 ,
b00101 -
b01000 .
b00110 7
b01 ;
b000 <
b0110 >
0?
0@
0A
1C
b0000000000000000000000000000000000000000000000000000000000000101 D
b0000000000000000000000000000000000000000000000000000000000001000 F
b0000000000000000000000000000000000000000000000000000000000001000 H
b0000000000000000000000000000000000000000000000000000000000001000 M
b1100011 3!
14!
b000000000101 6!
b000000001000 8!
b0100 9!
0;!
b0000000001000 =!
1@!
#32
0@!
#33
b0000000000000000000000000000000000000000000000000000000000111000 #
b0000000000000000000000000000000000000000000000000000000000110100 %
b0000000000000000000000000000000000000000000000000000000000111000 '
b0000001101 )
b00000000010000000010001010000011 *
1+
b00000 ,
b00100 -
b00101 .
b0000000000000000000000000000000000000000000000000000000000000100 5
b00010 7
b0000000000000000000000000000000000000000000000000000000000000100 8
0:
b00 ;
b010 <
b0010 >
1?
1@
1A
0C
b0000000000000000000000000000000000000000000000000000000000000100 D
b0000000000000000000000000000000000000000000000000000000000000101 F
b0000000000000000000000000000000000000000000000000000100000000100 H
b0000000001 J
b0000000000000000000000000000000000000000000000000000000000000100 M
b0000000000000000000000000000000000000000000000000000000000000100 1!
b0000011 3!
04!
b000000000100 6!
b000000000101 8!
b0010 9!
1;!
b0100000000100 =!
1@!
#34
0@!
#35
b0000000000000000000000000000000000000000000000000000000000111100 #
b0000000000000000000000000000000000000000000000000000000000111000 %
b0000000000000000000000000000000000000000000000000000000000111100 '
b0000001110 )
b00000000000000000000000000000000 *
b00000 -
b00000 .
b0000000000000000000000000000000000000000000000000000000000000000 5
b0000000000000000000000000000000000000000000000000000000000000000 8
1:
b000 <
b0000000000000000000000000000000000000000000000000000000000000000 D
b0000000000000000000000000000000000000000000000000000000000000000 F
b0000000000000000000000000000000000000000000000000000000000000000 H
b0000000000 J
b0000000000000000000000000000000000000000000000000000000000000000 M
b0000000000000000000000000000000000000000000000000000000000000000 1!
b0000000 3!
b000000000000 6!
b000000000000 8!
b0000 9!
0;!
b0000000000000 =!
1@!
#36
0@!
#37
b0000000000000000000000000000000000000000000000000000000001000000 #
b0000000000000000000000000000000000000000000000000000000000111100 %
b0000000000000000000000000000000000000000000000000000000001000000 '
b0000001111 )
1@!
#38
0@!
#39
b0000000000000000000000000000000000000000000000000000000001000100 #
b0000000000000000000000000000000000000000000000000000000001000000 %
b0000000000000000000000000000000000000000000000000000000001000100 '
b0000010000 )
1@!
